…
# pivot_longer

## Instructions

``` r
pulse_df = 
  haven::read_sas("./data/public_pulse_data.sas7bdat") %>%
  janitor::clean_names()

pulse_df
```

    ## # A tibble: 1,087 × 7
    ##      id   age sex   bdi_score_bl bdi_score_01m bdi_score_06m bdi_score_12m
    ##   <dbl> <dbl> <chr>        <dbl>         <dbl>         <dbl>         <dbl>
    ## 1 10003  48.0 male             7             1             2             0
    ## 2 10015  72.5 male             6            NA            NA            NA
    ## 3 10022  58.5 male            14             3             8            NA
    ## 4 10026  72.7 male            20             6            18            16
    ## 5 10035  60.4 male             4             0             1             2
    ## # … with 1,082 more rows

``` r
pulse_tidy_data = 
  pivot_longer(
    pulse_df, # the dataset that you'd like to pivot
    bdi_score_bl:bdi_score_12m, # the columns should be pivoted in
    names_to = "visit", # the new name
    values_to = "bdi")

pulse_tidy_data
```

    ## # A tibble: 4,348 × 5
    ##      id   age sex   visit           bdi
    ##   <dbl> <dbl> <chr> <chr>         <dbl>
    ## 1 10003  48.0 male  bdi_score_bl      7
    ## 2 10003  48.0 male  bdi_score_01m     1
    ## 3 10003  48.0 male  bdi_score_06m     2
    ## 4 10003  48.0 male  bdi_score_12m     0
    ## 5 10015  72.5 male  bdi_score_bl      6
    ## # … with 4,343 more rows
…
pulse_tidy_data
```

    ## # A tibble: 4,348 × 5
    ##      id   age sex   visit   bdi
    ##   <dbl> <dbl> <chr> <fct> <dbl>
    ## 1 10003  48.0 male  00m       7
    ## 2 10003  48.0 male  01m       1
    ## 3 10003  48.0 male  06m       2
    ## 4 10003  48.0 male  12m       0
    ## 5 10015  72.5 male  00m       6
    ## # … with 4,343 more rows
…
print(pulse_df, n = 12)
```

    ## # A tibble: 4,348 × 5
    ##    visit    id   age sex     bdi
    ##    <fct> <dbl> <dbl> <chr> <dbl>
    ##  1 00m   10003  48.0 male      7
    ##  2 01m   10003  48.0 male      1
    ##  3 06m   10003  48.0 male      2
    ##  4 12m   10003  48.0 male      0
    ##  5 00m   10015  72.5 male      6
    ##  6 01m   10015  72.5 male     NA
    ##  7 06m   10015  72.5 male     NA
    ##  8 12m   10015  72.5 male     NA
    ##  9 00m   10022  58.5 male     14
    ## 10 01m   10022  58.5 male      3
    ## 11 06m   10022  58.5 male      8
    ## 12 12m   10022  58.5 male     NA
    ## # … with 4,336 more rows
…
``` r
fas_data = 
  left_join(pup_data, litter_data, by = "litter_number")

fas_data
```

    ## # A tibble: 313 × 15
    ##   litter_n…¹ sex   pd_ears pd_eyes pd_pi…² pd_walk dose  day_o…³ gd0_w…⁴ gd18_…⁵
    ##   <chr>      <fct>   <dbl>   <dbl>   <dbl>   <dbl> <chr> <chr>     <dbl>   <dbl>
    ## 1 #85        male        4      13       7      11 con   7          19.7    34.7
    ## 2 #85        male        4      13       7      12 con   7          19.7    34.7
    ## 3 #1/2/95/2  male        5      13       7       9 con   7          27      42  
    ## 4 #1/2/95/2  male        5      13       8      10 con   7          27      42  
    ## 5 #5/5/3/83… male        5      13       8      10 con   7          26      41.4
    ## # … with 308 more rows, 5 more variables: gd_of_birth <dbl>,
    ## #   pups_born_alive <dbl>, pups_dead_birth <dbl>, pups_survive <dbl>,
    ## #   wt_gain <dbl>, and abbreviated variable names ¹​litter_number, ²​pd_pivot,
    ## #   ³​day_of_tx, ⁴​gd0_weight, ⁵​gd18_weight
…
    ## Rows: 135 Columns: 3
    ## ── Column specification ────────────────────────────────────────────────────────
    ## Delimiter: ","
    ## chr (3): What is your UNI?, What is your degree program?, Which most accurat...
    ## 
    ## ℹ Use `spec()` to retrieve the full column specification for this data.
    ## ℹ Specify the column types or set `show_col_types = FALSE` to quiet this message.

``` r
left_join(surv_os, surv_pr_git)
```

    ## Joining, by = "id"

    ## # A tibble: 175 × 4
    ##   id          os         prog  git_exp                                          
    ##   <chr>       <chr>      <chr> <chr>                                            
    ## 1 student_87  <NA>       MS    Pretty smooth: needed some work to connect Git, …
    ## 2 student_106 Windows 10 Other Pretty smooth: needed some work to connect Git, …
    ## 3 student_66  Mac OS X   MPH   Smooth: installation and connection with GitHub …
    ## 4 student_93  Windows 10 MS    Smooth: installation and connection with GitHub …
    ## 5 student_99  Mac OS X   MS    Smooth: installation and connection with GitHub …
    ## # … with 170 more rows

``` r
inner_join(surv_os, surv_pr_git)
```

    ## Joining, by = "id"

    ## # A tibble: 129 × 4
    ##   id          os         prog  git_exp                                          
    ##   <chr>       <chr>      <chr> <chr>                                            
    ## 1 student_87  <NA>       MS    Pretty smooth: needed some work to connect Git, …
    ## 2 student_106 Windows 10 Other Pretty smooth: needed some work to connect Git, …
    ## 3 student_66  Mac OS X   MPH   Smooth: installation and connection with GitHub …
    ## 4 student_93  Windows 10 MS    Smooth: installation and connection with GitHub …
    ## 5 student_99  Mac OS X   MS    Smooth: installation and connection with GitHub …
    ## # … with 124 more rows

``` r
anti_join(surv_os, surv_pr_git)
```

    ## Joining, by = "id"

    ## # A tibble: 46 × 2
    ##   id          os        
    ##   <chr>       <chr>     
    ## 1 student_86  Mac OS X  
    ## 2 student_91  Windows 10
    ## 3 student_24  Mac OS X  
    ## 4 student_103 Mac OS X  
    ## 5 student_163 Mac OS X  
    ## # … with 41 more rows
…
